{
  "Type": "SubscriptionConfirmation",
  "MessageId": "2eee99d4-d715-490f-87dd-1066102e30a6",
  "Token": "2336412f37fb687f5d51e6e241d59b69a62a729402f8024b6532f9f1a9539b7706eaec7d8fcb408e6954bcaad01513e54995f7c2109fe01df9b56ca057ea025653051421bf94b54d4fc84028f6917b902349cbed7f073e2652dd0813decf278432455fcebb9739f8b20d3a354793baba",
  "TopicArn": "arn:aws:sns:us-west-2:376067477311:report",
  "Message": "You have chosen to subscribe to the topic arn:aws:sns:us-west-2:376067477311:report.\nTo confirm the subscription, visit the SubscribeURL included in this message.",
  "SubscribeURL": "https:\/\/sns.us-west-2.amazonaws.com\/?Action=ConfirmSubscription&TopicArn=arn:aws:sns:us-west-2:376067477311:report&Token=2336412f37fb687f5d51e6e241d59b69a62a729402f8024b6532f9f1a9539b7706eaec7d8fcb408e6954bcaad01513e54995f7c2109fe01df9b56ca057ea025653051421bf94b54d4fc84028f6917b902349cbed7f073e2652dd0813decf278432455fcebb9739f8b20d3a354793baba",
  "Timestamp": "2017-11-09T14:55:28.747Z",
  "SignatureVersion": "1",
  "Signature": "YDophwYzDnvDJNGl2tgGk8MVMLuacDlBdxbTdJUnX6QqvPFvfRT0AOr69mqgfR9lp0yBOH0C1psMQrXqSN3MKHyYAPCZ9UJUIZTmnUQfHZWSG3+yyBxaeJCH\/\/KXipz\/NhL4zrnfTG9bVcE4ox+tIVJjawKd8EPE\/1FlxWzUo\/OzNtxd3mfCB3FkKimt3UFhdNF\/V9IQlXB7gYe2ZXKg7mC6FahQr7\/C1uHITzN0wiOH2INtE1SI+g84MYAA2+zlvMrTicMNRJDZXgt6555PWK+YoywvJDekbBnDvt28n2Hk8AxjMyt+Za8xi32MYVsMeo1N98UmBnF5JMicXtUlYA==",
  "SigningCertURL": "https:\/\/sns.us-west-2.amazonaws.com\/SimpleNotificationService-433026a4050d206028891664da859041.pem"
}
